,Attribute,Row Count,"Missing values, %",Cardinality,Min,Max,1st quartile,3rd quartile,Average,Median,Std dev.
0,MinTemp,142193,0.44798267143952236,389,-8.5,33.9,7.6,16.8,12.186399728729265,12.0,6.403282674671353
1,MaxTemp,142193,0.22645277896942886,505,-4.8,48.1,17.9,28.2,23.226784191272355,22.6,7.117618141018133
2,Rainfall,142193,0.9887969168665124,679,0.0,371.0,0.0,0.8,2.349974074310838,0.0,8.465172917616462
3,Evaporation,142193,42.78902618272348,356,0.0,145.0,2.6,7.4,5.469824216349109,4.8,4.188536508895158
4,Sunshine,142193,47.692924405561456,145,0.0,14.5,4.9,10.6,7.624853113193594,8.5,3.7815249942144553
5,WindGustSpeed,142193,6.519308264119894,67,6.0,135.0,31.0,48.0,39.98429165757619,39.0,13.588800765487761
6,WindSpeed9am,142193,0.948007285872019,43,0.0,130.0,7.0,19.0,14.001988000994,13.0,8.893337098234502
7,WindSpeed3pm,142193,1.8495987847503041,44,0.0,87.0,13.0,24.0,18.63757586179718,19.0,8.803345036235534
8,Humidity9am,142193,1.247600092831574,101,0.0,100.0,57.0,83.0,68.8438103105705,70.0,19.051292535336177
9,Humidity3pm,142193,2.5388028946572616,101,0.0,100.0,37.0,66.0,51.482606091656265,52.0,20.79777184369886
10,Pressure9am,142193,9.85561877166949,546,980.5,1041.0,1012.9,1022.4,1017.6537584159653,1017.6,7.105475711520846
11,Pressure3pm,142193,9.832410878172624,549,977.1,1039.6,1010.4,1020.0,1015.2582035378904,1015.2,7.03667678349354
12,Cloud9am,142193,37.73533155640573,10,0.0,9.0,1.0,7.0,4.437189391885787,5.0,2.887015525733593
13,Cloud3pm,142193,40.15246882757942,10,0.0,9.0,2.0,7.0,4.503166899728551,5.0,2.7206325304036647
14,Temp9am,142193,0.635755627914173,440,-7.2,40.2,12.3,21.6,16.987508581701338,16.7,6.4928383254788855
15,Temp3pm,142193,1.9171126567411898,500,-5.4,46.7,16.6,26.4,21.687234973147767,21.1,6.93759386853372
16,Year,142193,0.0,11,2007.0,2017.0,2011.0,2015.0,2012.7589262481276,2013.0,2.541255789861398
17,Month,142193,0.0,12,1.0,12.0,3.0,9.0,6.402544429050656,6.0,3.426505527974433
18,Day,142193,0.0,31,1.0,31.0,8.0,23.0,15.715084427503463,16.0,8.798150407776841
